         run       event       nTopo   nIdTracks  nTauTracks       nTaus      nMuons       nElec   nTrueElec   nFakeElec       nPhot   nTruePhot   nFakePhot
      284500    87473001         116         129          35           3           1           8           2           6           7           4           3
      284500    87473014          89          79          31           6           0          11           1          10           6           4           2
      284500    87473022          35          29          16           2           0           4           1           3           4           3           1
      284500    87473032          29          32          24           4           1          10           4           6           6           2           4
      284500    87473037          65          42          38           7           0          11           2           9           6           4           2
      284500    87473040         104          94          67           9           1          17           1          16          13           6           7
      284500    87473051         135         110          60          11           0          11           1          10          22          16           6
      284500    87473063          62          77          32           5           3           6           2           4           6           4           2
      284500    87473068          26          33           4           1           1           0           0           0           0           0           0
      284500    87473075          67          86          27           5           1           5           0           5           5           4           1
      284500    87473084          84          84          52           6           2          13           1          12          11           6           5
      284500    87473091          40          49          15           3           0           3           2           1           6           3           3
      284500    87473096          68          75          19           3           2           3           0           3           5           2           3
      284500    87473104          64          63          35           4           0           6           2           4           5           4           1
      284500    87473114          88          77          47           7           2          12           1          11           9           6           3
      284500    87473121          86         100          51           7           2          14           3          11           8           6           2
      284500    87473132          85          59          42           8           1          12           0          12           4           4           0
      284500    87473137          90          70          57           7           3          15           0          15           7           7           0
      284500    87473144          83          68          34           5           1           9           2           7           7           5           2
      284500    87473154          92          88          46           6           0          12           3           9           8           4           4
      284500    87473162          49          53          29           4           0           5           1           4           6           5           1
      284500    87473167          74          56          39           6           3          15           2          13          15          10           5
      284500    87473171          80          69          21           4           3           4           2           2           5           4           1
      284500    87473184          69          86          32           5           2           7           1           6           5           3           2
      284500    87473192          53          52          25           4           1           6           4           2           6           5           1
